{
	"response": [
		{
			"maintainer": "Hildo Boerboom (firebird11)",
			"oem": "OnePlus",
			"device": "OnePlus 6T",
			"filename": "crDroidAndroid-10.0-20200219-fajita-v6.3.zip",
			"download": "https://sourceforge.net/projects/crdroid/files/fajita/6.x/crDroidAndroid-10.0-20200219-fajita-v6.3.zip/download",
			"timestamp": 1582094958,
			"md5": "5d0c842d5fc5c0f4275a4a6648462dbf",
			"size": 704075023,
			"version": "6.3",
			"buildtype": "Beta",
			"forum": "https://forum.xda-developers.com/oneplus-6t/development/official-romcrdroid-t3984403",
			"gapps": "",
			"firmware": "",
			"modem": "",
			"bootloader": "",
			"recovery": "https://sourceforge.net/projects/crdroid/files/fajita/recovery/",
			"paypal": "https://www.paypal.com/donate/?token=0YBuV21oREewWBX4P-KJ-Bg-SZ2F953HEeAAqGfW3Q23RTA-r6riJtdB-ghTU5X6krZMKG&country.x=US&locale.x=US",
			"telegram": "https://web.telegram.org/#/im?p=@crdroidoneplus6_6t"
		}
	]
}
